Pet Cats UK Data Visualization Report
…
library(patchwork)

tuesdata <- tidytuesdayR::tt_load('2023-01-31')

    Downloading file 1 of 2: `cats_uk.csv`
    Downloading file 2 of 2: `cats_uk_reference.csv`

cats_uk <- readr::read_csv('https://raw.githubusercontent.com/rfordatascience/tidytuesday/master/data/2023/2023-01-31/cats_uk.csv')
cats_uk_reference <- readr::read_csv('https://raw.githubusercontent.com/rfordatascience/tidytuesday/master/data/2023/2023-01-31/cats_uk_reference.csv')

cats_uk_reference

# A tibble: 101 × 16
   tag_id  anima…¹ anima…² deploy_on_date      deploy_off_date     hunt  prey_…³
   <chr>   <chr>   <chr>   <dttm>              <dttm>              <lgl>   <dbl>
 1 Tommy-… Tommy   Felis … 2017-06-03 01:02:09 2017-06-10 02:10:52 TRUE     12.5
 2 Athena  Athena  Felis … 2017-06-24 01:02:13 2017-06-30 23:59:32 TRUE      3  
 3 Ares    Ares    Felis … 2017-06-24 01:03:57 2017-06-30 23:58:01 NA        0  
 4 Lola    Lola    Felis … 2017-06-24 01:18:49 2017-06-30 09:04:40 TRUE      3  
 5 Maveri… Maveri… Felis … 2017-06-25 01:04:35 2017-07-03 09:10:07 TRUE      3  
 6 Coco    Coco    Felis … 2017-06-28 01:02:22 2017-07-05 06:50:04 TRUE      3  
 7 Charlie Charlie Felis … 2017-06-28 01:03:33 2017-07-04 07:08:31 TRUE      3  
 8 Jago    Jago    Felis … 2017-06-28 04:10:59 2017-07-04 02:50:05 TRUE     17.5
 9 Morphe… Morphe… Felis … 2017-07-01 01:02:18 2017-07-09 06:39:05 TRUE      3  
10 Nettle… Nettle  Felis … 2017-07-01 01:05:50 2017-07-08 00:05:12 TRUE      7.5
# … with 91 more rows, 9 more variables: animal_reproductive_condition <chr>,
#   animal_sex <chr>, hrs_indoors <dbl>, n_cats <dbl>, food_dry <lgl>,
#   food_wet <lgl>, food_other <lgl>, study_site <chr>, age_years <dbl>, and
#   abbreviated variable names ¹​animal_id, ²​animal_taxon, ³​prey_p_month

cats_uk

# A tibble: 18,215 × 11
   tag_id   event_id visible timestamp           locat…¹ locat…² groun…³ heigh…⁴
   <chr>       <dbl> <lgl>   <dttm>                <dbl>   <dbl>   <dbl>   <dbl>
 1 Ares   3395610551 TRUE    2017-06-24 01:03:57   -5.11    50.2     684   155. 
 2 Ares   3395610552 TRUE    2017-06-24 01:11:20   -5.11    50.2     936   155. 
 3 Ares   3395610553 TRUE    2017-06-24 02:58:16   -5.11    50.2    2340    81.4
 4 Ares   3395610554 TRUE    2017-06-24 03:01:26   -5.11    50.2       0    67.8
 5 Ares   3395610555 TRUE    2017-06-24 03:51:58   -5.11    50.2    4896   118. 
 6 Ares   3395610556 TRUE    2017-06-24 03:55:03   -5.11    50.2     504   123. 
 7 Ares   3395610557 TRUE    2017-06-24 05:24:17   -5.11    50.2     108    27.1
 8 Ares   3395610558 TRUE    2017-06-24 05:27:23   -5.11    50.2     504    36.3
 9 Ares   3395610559 TRUE    2017-06-24 09:14:37   -5.11    50.2     252    67.4
10 Ares   3395610560 TRUE    2017-06-24 09:17:42   -5.11    50.2    4068    78.9
# … with 18,205 more rows, 3 more variables: algorithm_marked_outlier <lgl>,
#   manually_marked_outlier <lgl>, study_name <chr>, and abbreviated variable
#   names ¹​location_long, ²​location_lat, ³​ground_speed, ⁴​height_above_ellipsoid
…
